{
    "list": [
        {
            "user": "",
            "project": "1106_app_policy_project",
            "device": "ark-2250-1",
            "instance": "",
            "severity": "INFO",
            "description": "VolInst '1106_app_policy_project.1106_nginx_bundle.ark-2250-1_0_im_0' run state changed from 'Error' to 'Online'",
            "timestamp": "2025-12-30T08:51:15.361836653Z",
            "source": "EVENT_SOURCE_SYSTEM",
            "resource": "VolInst",
            "eventType": "VolInst_Online",
            "tags": [],
            "resourceName": "1106_app_policy_project.1106_nginx_bundle.ark-2250-1_0_im_0",
            "jsonData": null,
            "clusterInstance": ""
        },
        {
            "user": "",
            "project": "1106_app_policy_project",
            "device": "ark-2250-1",
            "instance": "",
            "severity": "NOTICE",
            "description": "VolInst '1106_app_policy_project.1106_nginx_bundle.ark-2250-1_0_im_0' run state changed from 'Online' to 'Error'",
            "timestamp": "2025-12-30T08:44:27.807685431Z",
            "source": "EVENT_SOURCE_SYSTEM",
            "resource": "VolInst",
            "eventType": "VolInst_Error",
            "tags": [],
            "resourceName": "1106_app_policy_project.1106_nginx_bundle.ark-2250-1_0_im_0",
            "jsonData": null,
            "clusterInstance": ""
        },
        {
            "user": "",
            "project": "1106_app_policy_project",
            "device": "ark-2250-1",
            "instance": "",
            "severity": "INFO",
            "description": "VolInst '1106_app_policy_project.1106_nginx_bundle.ark-2250-1_0_im_0' run state changed from 'Error' to 'Online'",
            "timestamp": "2025-12-30T08:41:45.166012147Z",
            "source": "EVENT_SOURCE_SYSTEM",
            "resource": "VolInst",
            "eventType": "VolInst_Online",
            "tags": [],
            "resourceName": "1106_app_policy_project.1106_nginx_bundle.ark-2250-1_0_im_0",
            "jsonData": null,
            "clusterInstance": ""
        },
        {
            "user": "",
            "project": "1106_app_policy_project",
            "device": "ark-2250-1",
            "instance": "",
            "severity": "NOTICE",
            "description": "VolInst '1106_app_policy_project.1106_nginx_bundle.ark-2250-1_0_im_0' run state changed from 'Online' to 'Error'",
            "timestamp": "2025-12-30T08:34:09.929316272Z",
            "source": "EVENT_SOURCE_SYSTEM",
            "resource": "VolInst",
            "eventType": "VolInst_Error",
            "tags": [],
            "resourceName": "1106_app_policy_project.1106_nginx_bundle.ark-2250-1_0_im_0",
            "jsonData": null,
            "clusterInstance": ""
        },
        {
            "user": "",
            "project": "1106_app_policy_project",
            "device": "ark-2250-1",
            "instance": "",
            "severity": "INFO",
            "description": "VolInst '1106_app_policy_project.1106_nginx_bundle.ark-2250-1_0_im_0' run state changed from 'Error' to 'Online'",
            "timestamp": "2025-12-30T08:30:19.262177747Z",
            "source": "EVENT_SOURCE_SYSTEM",
            "resource": "VolInst",
            "eventType": "VolInst_Online",
            "tags": [],
            "resourceName": "1106_app_policy_project.1106_nginx_bundle.ark-2250-1_0_im_0",
            "jsonData": null,
            "clusterInstance": ""
        },
        {
            "user": "",
            "project": "1106_app_policy_project",
            "device": "ark-2250-1",
            "instance": "",
            "severity": "NOTICE",
            "description": "VolInst '1106_app_policy_project.1106_nginx_bundle.ark-2250-1_0_im_0' run state changed from 'Online' to 'Error'",
            "timestamp": "2025-12-30T08:22:01.676900320Z",
            "source": "EVENT_SOURCE_SYSTEM",
            "resource": "VolInst",
            "eventType": "VolInst_Error",
            "tags": [],
            "resourceName": "1106_app_policy_project.1106_nginx_bundle.ark-2250-1_0_im_0",
            "jsonData": null,
            "clusterInstance": ""
        },
        {
            "user": "",
            "project": "1106_app_policy_project",
            "device": "ark-2250-1",
            "instance": "",
            "severity": "INFO",
            "description": "VolInst '1106_app_policy_project.1106_nginx_bundle.ark-2250-1_0_im_0' run state changed from 'Error' to 'Online'",
            "timestamp": "2025-12-30T08:10:20.997637799Z",
            "source": "EVENT_SOURCE_SYSTEM",
            "resource": "VolInst",
            "eventType": "VolInst_Online",
            "tags": [],
            "resourceName": "1106_app_policy_project.1106_nginx_bundle.ark-2250-1_0_im_0",
            "jsonData": null,
            "clusterInstance": ""
        },
        {
            "user": "",
            "project": "1106_app_policy_project",
            "device": "ark-2250-1",
            "instance": "",
            "severity": "NOTICE",
            "description": "VolInst '1106_app_policy_project.1106_nginx_bundle.ark-2250-1_0_im_0' run state changed from 'Online' to 'Error'",
            "timestamp": "2025-12-30T08:06:56.531363400Z",
            "source": "EVENT_SOURCE_SYSTEM",
            "resource": "VolInst",
            "eventType": "VolInst_Error",
            "tags": [],
            "resourceName": "1106_app_policy_project.1106_nginx_bundle.ark-2250-1_0_im_0",
            "jsonData": null,
            "clusterInstance": ""
        },
        {
            "user": "",
            "project": "1106_app_policy_project",
            "device": "ark-2250-1",
            "instance": "",
            "severity": "INFO",
            "description": "VolInst '1106_app_policy_project.1106_nginx_bundle.ark-2250-1_0_im_0' run state changed from 'Error' to 'Online'",
            "timestamp": "2025-12-30T07:58:22.414454093Z",
            "source": "EVENT_SOURCE_SYSTEM",
            "resource": "VolInst",
            "eventType": "VolInst_Online",
            "tags": [],
            "resourceName": "1106_app_policy_project.1106_nginx_bundle.ark-2250-1_0_im_0",
            "jsonData": null,
            "clusterInstance": ""
        },
        {
            "user": "",
            "project": "1106_app_policy_project",
            "device": "ark-2250-1",
            "instance": "",
            "severity": "NOTICE",
            "description": "VolInst '1106_app_policy_project.1106_nginx_bundle.ark-2250-1_0_im_0' run state changed from 'Online' to 'Error'",
            "timestamp": "2025-12-30T07:55:11.373536261Z",
            "source": "EVENT_SOURCE_SYSTEM",
            "resource": "VolInst",
            "eventType": "VolInst_Error",
            "tags": [],
            "resourceName": "1106_app_policy_project.1106_nginx_bundle.ark-2250-1_0_im_0",
            "jsonData": null,
            "clusterInstance": ""
        },
        {
            "user": "",
            "project": "1106_app_policy_project",
            "device": "ark-2250-1",
            "instance": "",
            "severity": "INFO",
            "description": "VolInst '1106_app_policy_project.1106_nginx_bundle.ark-2250-1_0_im_0' run state changed from 'Error' to 'Online'",
            "timestamp": "2025-12-30T07:46:25.390824394Z",
            "source": "EVENT_SOURCE_SYSTEM",
            "resource": "VolInst",
            "eventType": "VolInst_Online",
            "tags": [],
            "resourceName": "1106_app_policy_project.1106_nginx_bundle.ark-2250-1_0_im_0",
            "jsonData": null,
            "clusterInstance": ""
        },
        {
            "user": "",
            "project": "1106_app_policy_project",
            "device": "ark-2250-1",
            "instance": "",
            "severity": "NOTICE",
            "description": "VolInst '1106_app_policy_project.1106_nginx_bundle.ark-2250-1_0_im_0' run state changed from 'Online' to 'Error'",
            "timestamp": "2025-12-30T07:40:24.850573149Z",
            "source": "EVENT_SOURCE_SYSTEM",
            "resource": "VolInst",
            "eventType": "VolInst_Error",
            "tags": [],
            "resourceName": "1106_app_policy_project.1106_nginx_bundle.ark-2250-1_0_im_0",
            "jsonData": null,
            "clusterInstance": ""
        },
        {
            "user": "",
            "project": "1106_app_policy_project",
            "device": "ark-2250-1",
            "instance": "",
            "severity": "INFO",
            "description": "VolInst '1106_app_policy_project.1106_nginx_bundle.ark-2250-1_0_im_0' run state changed from 'Error' to 'Online'",
            "timestamp": "2025-12-30T07:35:07.783591576Z",
            "source": "EVENT_SOURCE_SYSTEM",
            "resource": "VolInst",
            "eventType": "VolInst_Online",
            "tags": [],
            "resourceName": "1106_app_policy_project.1106_nginx_bundle.ark-2250-1_0_im_0",
            "jsonData": null,
            "clusterInstance": ""
        },
        {
            "user": "",
            "project": "1106_app_policy_project",
            "device": "ark-2250-1",
            "instance": "",
            "severity": "NOTICE",
            "description": "VolInst '1106_app_policy_project.1106_nginx_bundle.ark-2250-1_0_im_0' run state changed from 'Online' to 'Error'",
            "timestamp": "2025-12-30T07:27:24.805070376Z",
            "source": "EVENT_SOURCE_SYSTEM",
            "resource": "VolInst",
            "eventType": "VolInst_Error",
            "tags": [],
            "resourceName": "1106_app_policy_project.1106_nginx_bundle.ark-2250-1_0_im_0",
            "jsonData": null,
            "clusterInstance": ""
        },
        {
            "user": "",
            "project": "1106_app_policy_project",
            "device": "ark-2250-1",
            "instance": "",
            "severity": "INFO",
            "description": "VolInst '1106_app_policy_project.1106_nginx_bundle.ark-2250-1_0_im_0' run state changed from 'Error' to 'Online'",
            "timestamp": "2025-12-30T07:16:46.743644684Z",
            "source": "EVENT_SOURCE_SYSTEM",
            "resource": "VolInst",
            "eventType": "VolInst_Online",
            "tags": [],
            "resourceName": "1106_app_policy_project.1106_nginx_bundle.ark-2250-1_0_im_0",
            "jsonData": null,
            "clusterInstance": ""
        },
        {
            "user": "",
            "project": "1106_app_policy_project",
            "device": "ark-2250-1",
            "instance": "",
            "severity": "NOTICE",
            "description": "VolInst '1106_app_policy_project.1106_nginx_bundle.ark-2250-1_0_im_0' run state changed from 'Online' to 'Error'",
            "timestamp": "2025-12-30T07:11:45.768652809Z",
            "source": "EVENT_SOURCE_SYSTEM",
            "resource": "VolInst",
            "eventType": "VolInst_Error",
            "tags": [],
            "resourceName": "1106_app_policy_project.1106_nginx_bundle.ark-2250-1_0_im_0",
            "jsonData": null,
            "clusterInstance": ""
        },
        {
            "user": "",
            "project": "1106_app_policy_project",
            "device": "ark-2250-1",
            "instance": "",
            "severity": "INFO",
            "description": "VolInst '1106_app_policy_project.1106_nginx_bundle.ark-2250-1_0_im_0' run state changed from 'Error' to 'Online'",
            "timestamp": "2025-12-30T06:57:45.523483587Z",
            "source": "EVENT_SOURCE_SYSTEM",
            "resource": "VolInst",
            "eventType": "VolInst_Online",
            "tags": [],
            "resourceName": "1106_app_policy_project.1106_nginx_bundle.ark-2250-1_0_im_0",
            "jsonData": null,
            "clusterInstance": ""
        },
        {
            "user": "",
            "project": "1106_app_policy_project",
            "device": "ark-2250-1",
            "instance": "",
            "severity": "NOTICE",
            "description": "VolInst '1106_app_policy_project.1106_nginx_bundle.ark-2250-1_0_im_0' run state changed from 'Online' to 'Error'",
            "timestamp": "2025-12-30T06:56:07.960390623Z",
            "source": "EVENT_SOURCE_SYSTEM",
            "resource": "VolInst",
            "eventType": "VolInst_Error",
            "tags": [],
            "resourceName": "1106_app_policy_project.1106_nginx_bundle.ark-2250-1_0_im_0",
            "jsonData": null,
            "clusterInstance": ""
        },
        {
            "user": "",
            "project": "1106_app_policy_project",
            "device": "ark-2250-1",
            "instance": "",
            "severity": "INFO",
            "description": "VolInst '1106_app_policy_project.1106_nginx_bundle.ark-2250-1_0_im_0' run state changed from 'Error' to 'Online'",
            "timestamp": "2025-12-30T06:46:57.426912519Z",
            "source": "EVENT_SOURCE_SYSTEM",
            "resource": "VolInst",
            "eventType": "VolInst_Online",
            "tags": [],
            "resourceName": "1106_app_policy_project.1106_nginx_bundle.ark-2250-1_0_im_0",
            "jsonData": null,
            "clusterInstance": ""
        },
        {
            "user": "",
            "project": "1106_app_policy_project",
            "device": "ark-2250-1",
            "instance": "",
            "severity": "NOTICE",
            "description": "VolInst '1106_app_policy_project.1106_nginx_bundle.ark-2250-1_0_im_0' run state changed from 'Online' to 'Error'",
            "timestamp": "2025-12-30T06:43:54.726421595Z",
            "source": "EVENT_SOURCE_SYSTEM",
            "resource": "VolInst",
            "eventType": "VolInst_Error",
            "tags": [],
            "resourceName": "1106_app_policy_project.1106_nginx_bundle.ark-2250-1_0_im_0",
            "jsonData": null,
            "clusterInstance": ""
        }
    ],
    "next": {
        "pageToken": "2025-12-30T06:43:54.726421595Z",
        "orderBy": [],
        "pageNum": 1,
        "pageSize": 20,
        "totalPages": 137
    },
    "summary": {
        "description": "",
        "total": 2736,
        "values": {}
    }
}
